<?xml version="1.0" encoding="UTF-8" standalone="no"?>
<!-- Created with Inkscape (http://www.inkscape.org/) -->

<svg
   xmlns:dc="http://purl.org/dc/elements/1.1/"
   xmlns:cc="http://creativecommons.org/ns#"
   xmlns:rdf="http://www.w3.org/1999/02/22-rdf-syntax-ns#"
   xmlns:svg="http://www.w3.org/2000/svg"
   xmlns="http://www.w3.org/2000/svg"
   xmlns:sodipodi="http://sodipodi.sourceforge.net/DTD/sodipodi-0.dtd"
   xmlns:inkscape="http://www.inkscape.org/namespaces/inkscape"
   width="200.56879"
   height="110.2849"
   id="svg2"
   version="1.1"
   inkscape:version="0.48.4 r9939"
   sodipodi:docname="feedback-pi.svg"
   inkscape:export-filename="D:\Documents\University Classes\Yüksek Lisans\Aktif Filtre Sentezi\Ödev\AFS_Odevi_3\feedback-pi.png"
   inkscape:export-xdpi="750"
   inkscape:export-ydpi="750">
  <defs
     id="defs4">
    <inkscape:path-effect
       fuse_tolerance="0"
       vertical_pattern="false"
       prop_units="false"
       tang_offset="0"
       normal_offset="0"
       spacing="0"
       scale_y_rel="false"
       prop_scale="1"
       copytype="single_stretched"
       pattern="m 22,-9.7 0,10 10,-5 z"
       is_visible="true"
       id="path-effect3046"
       effect="skeletal" />
    <inkscape:path-effect
       fuse_tolerance="0"
       vertical_pattern="false"
       prop_units="false"
       tang_offset="0"
       normal_offset="0"
       spacing="0"
       scale_y_rel="false"
       prop_scale="1"
       copytype="single_stretched"
       pattern="m 22,-9.7 0,10 10,-5 z"
       is_visible="true"
       id="path-effect3046-8"
       effect="skeletal" />
    <inkscape:path-effect
       fuse_tolerance="0"
       vertical_pattern="false"
       prop_units="false"
       tang_offset="0"
       normal_offset="0"
       spacing="0"
       scale_y_rel="false"
       prop_scale="1"
       copytype="single_stretched"
       pattern="m 22,-9.7 0,10 10,-5 z"
       is_visible="true"
       id="path-effect3046-7"
       effect="skeletal" />
  </defs>
  <sodipodi:namedview
     id="base"
     pagecolor="#ffffff"
     bordercolor="#666666"
     borderopacity="1.0"
     inkscape:pageopacity="0.0"
     inkscape:pageshadow="2"
     inkscape:zoom="6.9909845"
     inkscape:cx="100.28439"
     inkscape:cy="55.142448"
     inkscape:document-units="px"
     inkscape:current-layer="layer1"
     showgrid="false"
     showguides="true"
     inkscape:guide-bbox="true"
     fit-margin-top="10"
     fit-margin-left="10"
     fit-margin-right="10"
     fit-margin-bottom="10"
     inkscape:snap-global="false"
     inkscape:window-width="1680"
     inkscape:window-height="988"
     inkscape:window-x="-8"
     inkscape:window-y="-8"
     inkscape:window-maximized="1">
    <inkscape:grid
       type="xygrid"
       id="grid3319"
       empspacing="5"
       visible="true"
       enabled="true"
       snapvisiblegridlinesonly="true"
       originx="-17.195194px"
       originy="-76.904335px" />
  </sodipodi:namedview>
  <metadata
     id="metadata7">
    <rdf:RDF>
      <cc:Work
         rdf:about="">
        <dc:format>image/svg+xml</dc:format>
        <dc:type
           rdf:resource="http://purl.org/dc/dcmitype/StillImage" />
        <dc:title></dc:title>
      </cc:Work>
    </rdf:RDF>
  </metadata>
  <g
     inkscape:label="Layer 1"
     inkscape:groupmode="layer"
     id="layer1"
     transform="translate(-76.598868,-823.80225)">
    <path
       style="fill:none;stroke:#000000;stroke-width:0.86429107px;stroke-linecap:butt;stroke-linejoin:miter;stroke-opacity:1"
       d="m 172.66748,884.27906 -14.93999,0"
       id="path2989"
       inkscape:connector-curvature="0" />
    <path
       style="fill:none;stroke:#000000;stroke-width:0.85814625px;stroke-linecap:butt;stroke-linejoin:miter;stroke-opacity:1"
       d="m 172.67695,904.27906 c -14.7283,0 -14.7283,0 -14.7283,0"
       id="path2991"
       inkscape:connector-curvature="0" />
    <path
       style="fill:none;stroke:#000000;stroke-width:1px;stroke-linecap:butt;stroke-linejoin:miter;stroke-opacity:1"
       d="m 172.54516,874.27906 0,40 25,-10 0,-20 z"
       id="path2993"
       inkscape:connector-curvature="0" />
    <path
       style="fill:none;stroke:#000000;stroke-width:1px;stroke-linecap:butt;stroke-linejoin:miter;stroke-opacity:1"
       d="m 197.54516,894.27906 15,0"
       id="path2995"
       inkscape:connector-curvature="0" />
    <path
       style="fill:none;stroke:#000000;stroke-width:1px;stroke-linecap:butt;stroke-linejoin:miter;stroke-opacity:1"
       d="m 187.31452,908.58715 0,15"
       id="path2997"
       inkscape:connector-curvature="0" />
    <text
       xml:space="preserve"
       style="font-size:40px;font-style:normal;font-weight:normal;line-height:125%;letter-spacing:0px;word-spacing:0px;fill:#000000;fill-opacity:1;stroke:none;font-family:Sans"
       x="179.74289"
       y="895.99146"
       id="text3856"
       sodipodi:linespacing="125%"><tspan
         sodipodi:role="line"
         id="tspan3858"
         x="179.74289"
         y="895.99146"
         style="font-size:14px;font-style:normal;font-variant:normal;font-weight:normal;font-stretch:normal;font-family:Serif;-inkscape-font-specification:Serif">g<tspan
   style="font-size:8px"
   id="tspan3866">m</tspan></tspan></text>
    <path
       style="fill:none;stroke:#000000;stroke-width:1px;stroke-linecap:butt;stroke-linejoin:miter;stroke-opacity:1"
       d="m 174.54516,884.27906 5,0 0,0 0,0"
       id="path3868"
       inkscape:connector-curvature="0" />
    <path
       inkscape:connector-curvature="0"
       id="path3870"
       d="m 174.54516,884.27906 5,0 0,0 0,0"
       style="fill:none;stroke:#000000;stroke-width:1px;stroke-linecap:butt;stroke-linejoin:miter;stroke-opacity:1" />
    <path
       style="fill:none;stroke:#000000;stroke-width:1px;stroke-linecap:butt;stroke-linejoin:miter;stroke-opacity:1"
       d="m 177.04516,906.30901 0,-5 0,0 0,0"
       id="path3872"
       inkscape:connector-curvature="0" />
    <path
       inkscape:connector-curvature="0"
       id="path3874"
       d="m 174.54516,903.80901 5,0 0,0 0,0"
       style="fill:none;stroke:#000000;stroke-width:1px;stroke-linecap:butt;stroke-linejoin:miter;stroke-opacity:1" />
    <g
       transform="matrix(-1,0,0,-1,387.00362,1749.9156)"
       id="layer1-1"
       inkscape:label="Layer 1">
      <path
         sodipodi:nodetypes="cccccccccc"
         transform="translate(7.839653,803.55994)"
         inkscape:connector-curvature="0"
         id="path3022"
         d="m 167.16035,93.802268 12,0 3,-5 5,10 5,-10 5,10 5,-10 5,10 3,-5 12,0"
         style="fill:none;stroke:#000000;stroke-width:1px;stroke-linecap:butt;stroke-linejoin:miter;stroke-opacity:1" />
    </g>
    <g
       transform="translate(-60.416082,25.344102)"
       id="layer1-11"
       inkscape:label="Layer 1"
       style="fill:#000000;fill-opacity:0.00834333">
      <path
         inkscape:connector-curvature="0"
         id="path4453"
         d="m 147.51495,892.47717 20,0"
         style="fill:#000000;fill-opacity:0.00834333;stroke:#000000;stroke-width:1px;stroke-linecap:butt;stroke-linejoin:miter;stroke-opacity:1" />
      <path
         inkscape:connector-curvature="0"
         id="path4455"
         d="m 164.51495,895.22717 -14,0"
         style="fill:#000000;fill-opacity:0.00834333;stroke:#000000;stroke-width:1px;stroke-linecap:butt;stroke-linejoin:miter;stroke-opacity:1" />
      <path
         inkscape:connector-curvature="0"
         id="path4457"
         d="m 153.51495,897.97717 8,0"
         style="fill:#000000;fill-opacity:0.00834333;stroke:#000000;stroke-width:1px;stroke-linecap:butt;stroke-linejoin:miter;stroke-opacity:1" />
      <path
         inkscape:connector-curvature="0"
         id="path3025"
         d="m 157.51495,892.36221 0,-6 0,0 0,0"
         style="fill:#000000;fill-opacity:0.00834333;stroke:#000000;stroke-width:1px;stroke-linecap:butt;stroke-linejoin:miter;stroke-opacity:1" />
    </g>
    <g
       transform="translate(58.253049,56.934364)"
       id="layer1-4"
       inkscape:label="Layer 1">
      <path
         inkscape:connector-curvature="0"
         id="path2989-2"
         d="m 100.12232,847.36217 -14.939988,0"
         style="fill:none;stroke:#000000;stroke-width:0.86429107px;stroke-linecap:butt;stroke-linejoin:miter;stroke-opacity:1" />
      <path
         transform="translate(-40.5,772.86217)"
         d="m 126,74.5 c 0,0.828427 -0.67157,1.5 -1.5,1.5 -0.82843,0 -1.5,-0.671573 -1.5,-1.5 0,-0.828427 0.67157,-1.5 1.5,-1.5 0.82843,0 1.5,0.671573 1.5,1.5 z"
         sodipodi:ry="1.5"
         sodipodi:rx="1.5"
         sodipodi:cy="74.5"
         sodipodi:cx="124.5"
         id="path3854"
         style="fill:none;stroke:#000000;stroke-width:0.5;stroke-linejoin:miter;stroke-miterlimit:4;stroke-opacity:1;stroke-dasharray:none"
         sodipodi:type="arc" />
    </g>
    <g
       inkscape:label="Layer 1"
       id="g3313"
       transform="matrix(-1,0,0,-1,332.49817,1741.6464)">
      <path
         style="fill:none;stroke:#000000;stroke-width:0.86429107px;stroke-linecap:butt;stroke-linejoin:miter;stroke-opacity:1"
         d="m 100.12232,847.36217 -14.939988,0"
         id="path3315"
         inkscape:connector-curvature="0" />
      <path
         sodipodi:type="arc"
         style="fill:none;stroke:#000000;stroke-width:0.5;stroke-linejoin:miter;stroke-miterlimit:4;stroke-opacity:1;stroke-dasharray:none"
         id="path3317"
         sodipodi:cx="124.5"
         sodipodi:cy="74.5"
         sodipodi:rx="1.5"
         sodipodi:ry="1.5"
         d="m 126,74.5 c 0,0.828427 -0.67157,1.5 -1.5,1.5 -0.82843,0 -1.5,-0.671573 -1.5,-1.5 0,-0.828427 0.67157,-1.5 1.5,-1.5 0.82843,0 1.5,0.671573 1.5,1.5 z"
         transform="translate(-40.5,772.86217)" />
    </g>
    <path
       style="fill:none;stroke:#000000;stroke-width:1px;stroke-linecap:butt;stroke-linejoin:miter;stroke-opacity:1"
       d="m 211.94759,894.26392 20.71691,0"
       id="path3333"
       inkscape:connector-curvature="0" />
    <text
       xml:space="preserve"
       style="font-size:12px;font-style:normal;font-variant:normal;font-weight:normal;font-stretch:normal;line-height:125%;letter-spacing:0px;word-spacing:0px;fill:#000000;fill-opacity:1;stroke:none;font-family:Serif;-inkscape-font-specification:Serif"
       x="136.74994"
       y="915.95294"
       id="text3337"
       sodipodi:linespacing="125%"><tspan
         sodipodi:role="line"
         id="tspan3339"
         x="136.74994"
         y="915.95294">Vi</tspan></text>
    <text
       sodipodi:linespacing="125%"
       id="text3347"
       y="898.40576"
       x="252.91179"
       style="font-size:12px;font-style:normal;font-variant:normal;font-weight:normal;font-stretch:normal;line-height:125%;letter-spacing:0px;word-spacing:0px;fill:#000000;fill-opacity:1;stroke:none;font-family:Serif;-inkscape-font-specification:Serif"
       xml:space="preserve"><tspan
         y="898.40576"
         x="252.91179"
         id="tspan3349"
         sodipodi:role="line">Vo</tspan></text>
    <path
       style="fill:none;stroke:#000000;stroke-width:1px;stroke-linecap:butt;stroke-linejoin:miter;stroke-opacity:1"
       d="m 97.053034,911.91567 0,-27.71943"
       id="path3351"
       inkscape:connector-curvature="0" />
    <g
       inkscape:label="Layer 1"
       id="g3416"
       transform="matrix(-1,0,0,-1,326.91428,1781.6056)">
      <path
         style="fill:none;stroke:#000000;stroke-width:1px;stroke-linecap:butt;stroke-linejoin:miter;stroke-opacity:1"
         d="m 167.16035,93.802268 12,0 3,-5 5,10 5,-10 5,10 5,-10 5,10 3,-5 12,0"
         id="path3418"
         inkscape:connector-curvature="0"
         transform="translate(7.839653,803.55994)"
         sodipodi:nodetypes="cccccccccc" />
    </g>
    <path
       style="fill:none;stroke:#000000;stroke-width:1px;stroke-linecap:butt;stroke-linejoin:miter;stroke-opacity:1"
       d="m 158.1645,884.2537 -8.92599,0"
       id="path3420"
       inkscape:connector-curvature="0" />
    <path
       style="fill:none;stroke:#000000;stroke-width:1px;stroke-linecap:butt;stroke-linejoin:miter;stroke-opacity:1"
       d="m 105.18193,28.595163 0,31.844069"
       id="path3422"
       inkscape:connector-curvature="0"
       transform="translate(52.180832,823.77906)" />
    <path
       style="fill:none;stroke:#000000;stroke-width:1px;stroke-linecap:butt;stroke-linejoin:miter;stroke-opacity:1"
       d="m 159.74,28.807747 9.097,0 0,41.81282"
       id="path3424"
       inkscape:connector-curvature="0"
       transform="translate(52.180832,823.77906)" />
    <text
       xml:space="preserve"
       style="font-size:12px;font-style:normal;font-variant:normal;font-weight:normal;font-stretch:normal;line-height:125%;letter-spacing:0px;word-spacing:0px;fill:#000000;fill-opacity:1;stroke:none;font-family:Serif;-inkscape-font-specification:Serif"
       x="118.71287"
       y="873.07104"
       id="text3426"
       sodipodi:linespacing="125%"><tspan
         sodipodi:role="line"
         id="tspan3428"
         x="118.71287"
         y="873.07104">R<tspan
   style="font-size:65.00091553%;baseline-shift:sub"
   id="tspan3430">1</tspan></tspan></text>
    <text
       sodipodi:linespacing="125%"
       id="text3432"
       y="841.74756"
       x="178.68883"
       style="font-size:12px;font-style:normal;font-variant:normal;font-weight:normal;font-stretch:normal;line-height:125%;letter-spacing:0px;word-spacing:0px;fill:#000000;fill-opacity:1;stroke:none;font-family:Serif;-inkscape-font-specification:Serif"
       xml:space="preserve"><tspan
         y="841.74756"
         x="178.68883"
         id="tspan3434"
         sodipodi:role="line">R<tspan
   style="font-size:65.00091553%;baseline-shift:sub"
   id="tspan3438">2</tspan></tspan></text>
  </g>
</svg>
