<?xml version="1.0" encoding="UTF-8" standalone="no"?>
<!-- Created with Inkscape (http://www.inkscape.org/) -->

<svg
   xmlns:dc="http://purl.org/dc/elements/1.1/"
   xmlns:cc="http://creativecommons.org/ns#"
   xmlns:rdf="http://www.w3.org/1999/02/22-rdf-syntax-ns#"
   xmlns:svg="http://www.w3.org/2000/svg"
   xmlns="http://www.w3.org/2000/svg"
   xmlns:sodipodi="http://sodipodi.sourceforge.net/DTD/sodipodi-0.dtd"
   xmlns:inkscape="http://www.inkscape.org/namespaces/inkscape"
   width="272.40891"
   height="181.13051"
   id="svg2"
   version="1.1"
   inkscape:version="0.48.4 r9939"
   sodipodi:docname="impedance-inverter.svg"
   inkscape:export-filename="D:\Documents\University Classes\Yüksek Lisans\Aktif Filtre Sentezi\Ödev\AFS_Odevi_3\png\impedance-inverter.png"
   inkscape:export-xdpi="750.17035"
   inkscape:export-ydpi="750.17035">
  <defs
     id="defs4">
    <inkscape:path-effect
       fuse_tolerance="0"
       vertical_pattern="false"
       prop_units="false"
       tang_offset="0"
       normal_offset="0"
       spacing="0"
       scale_y_rel="false"
       prop_scale="1"
       copytype="single_stretched"
       pattern="m 22,-9.7 0,10 10,-5 z"
       is_visible="true"
       id="path-effect3046"
       effect="skeletal" />
    <inkscape:path-effect
       fuse_tolerance="0"
       vertical_pattern="false"
       prop_units="false"
       tang_offset="0"
       normal_offset="0"
       spacing="0"
       scale_y_rel="false"
       prop_scale="1"
       copytype="single_stretched"
       pattern="m 22,-9.7 0,10 10,-5 z"
       is_visible="true"
       id="path-effect3046-8"
       effect="skeletal" />
    <inkscape:path-effect
       fuse_tolerance="0"
       vertical_pattern="false"
       prop_units="false"
       tang_offset="0"
       normal_offset="0"
       spacing="0"
       scale_y_rel="false"
       prop_scale="1"
       copytype="single_stretched"
       pattern="m 22,-9.7 0,10 10,-5 z"
       is_visible="true"
       id="path-effect3046-7"
       effect="skeletal" />
    <inkscape:path-effect
       fuse_tolerance="0"
       vertical_pattern="false"
       prop_units="false"
       tang_offset="0"
       normal_offset="0"
       spacing="0"
       scale_y_rel="false"
       prop_scale="1"
       copytype="single_stretched"
       pattern="m 22,-9.7 0,10 10,-5 z"
       is_visible="true"
       id="path-effect3046-80"
       effect="skeletal" />
  </defs>
  <sodipodi:namedview
     id="base"
     pagecolor="#ffffff"
     bordercolor="#666666"
     borderopacity="1.0"
     inkscape:pageopacity="0.0"
     inkscape:pageshadow="2"
     inkscape:zoom="4.2565993"
     inkscape:cx="138.16412"
     inkscape:cy="90.565261"
     inkscape:document-units="px"
     inkscape:current-layer="g3700"
     showgrid="true"
     showguides="true"
     inkscape:guide-bbox="true"
     fit-margin-top="20"
     fit-margin-left="20"
     fit-margin-right="20"
     fit-margin-bottom="20"
     inkscape:snap-global="false"
     inkscape:window-width="1680"
     inkscape:window-height="988"
     inkscape:window-x="-8"
     inkscape:window-y="-8"
     inkscape:window-maximized="1">
    <inkscape:grid
       type="xygrid"
       id="grid3319"
       empspacing="5"
       visible="true"
       enabled="true"
       snapvisiblegridlinesonly="true"
       originx="24.419337px"
       originy="-57.413143px" />
  </sodipodi:namedview>
  <metadata
     id="metadata7">
    <rdf:RDF>
      <cc:Work
         rdf:about="">
        <dc:format>image/svg+xml</dc:format>
        <dc:type
           rdf:resource="http://purl.org/dc/dcmitype/StillImage" />
        <dc:title></dc:title>
      </cc:Work>
    </rdf:RDF>
  </metadata>
  <g
     inkscape:label="Layer 1"
     inkscape:groupmode="layer"
     id="layer1"
     transform="translate(-34.984337,-772.44781)">
    <g
       inkscape:label="Layer 1"
       id="g3700"
       transform="translate(69.299066,-38.565465)">
      <path
         style="fill:none;stroke:#000000;stroke-width:0.86429107px;stroke-linecap:butt;stroke-linejoin:miter;stroke-opacity:1"
         d="m 100.12232,847.36217 -14.939988,0"
         id="path3702"
         inkscape:connector-curvature="0" />
      <path
         style="fill:none;stroke:#000000;stroke-width:0.85814625px;stroke-linecap:butt;stroke-linejoin:miter;stroke-opacity:1"
         d="m 100.13179,867.36217 c -14.728298,0 -14.728298,0 -14.728298,0"
         id="path3704"
         inkscape:connector-curvature="0" />
      <path
         style="fill:none;stroke:#000000;stroke-width:1px;stroke-linecap:butt;stroke-linejoin:miter;stroke-opacity:1"
         d="m 100,85 0,40 25,-10 0,-20 z"
         id="path3706"
         inkscape:connector-curvature="0"
         transform="translate(0,752.36217)" />
      <path
         style="fill:none;stroke:#000000;stroke-width:1px;stroke-linecap:butt;stroke-linejoin:miter;stroke-opacity:1"
         d="m 125,105 15,0"
         id="path3708"
         inkscape:connector-curvature="0"
         transform="translate(0,752.36217)" />
      <path
         style="fill:none;stroke:#000000;stroke-width:1px;stroke-linecap:butt;stroke-linejoin:miter;stroke-opacity:1"
         d="m 114.76936,871.67026 0,15"
         id="path3710"
         inkscape:connector-curvature="0" />
      <text
         xml:space="preserve"
         style="font-size:40px;font-style:normal;font-weight:normal;line-height:125%;letter-spacing:0px;word-spacing:0px;fill:#000000;fill-opacity:1;stroke:none;font-family:Sans"
         x="104.47306"
         y="859.07458"
         id="text3712"
         sodipodi:linespacing="125%"><tspan
           sodipodi:role="line"
           id="tspan3714"
           x="104.47306"
           y="859.07458"
           style="font-size:14px;font-style:normal;font-variant:normal;font-weight:normal;font-stretch:normal;font-family:Serif;-inkscape-font-specification:Serif">g<tspan
   style="font-size:8px"
   id="tspan3716">m</tspan><tspan
   id="tspan4882"
   style="font-size:65.00091553%;baseline-shift:sub">1</tspan></tspan></text>
      <path
         style="fill:none;stroke:#000000;stroke-width:1px;stroke-linecap:butt;stroke-linejoin:miter;stroke-opacity:1"
         d="m 102,95 5,0 0,0 0,0"
         id="path3718"
         inkscape:connector-curvature="0"
         transform="translate(0,752.36217)" />
      <path
         transform="translate(0,752.36217)"
         inkscape:connector-curvature="0"
         id="path3720"
         d="m 102,95 5,0 0,0 0,0"
         style="fill:none;stroke:#000000;stroke-width:1px;stroke-linecap:butt;stroke-linejoin:miter;stroke-opacity:1" />
      <path
         style="fill:none;stroke:#000000;stroke-width:1px;stroke-linecap:butt;stroke-linejoin:miter;stroke-opacity:1"
         d="m 104.5,849.86217 0,-5 0,0 0,0"
         id="path3722"
         inkscape:connector-curvature="0" />
      <path
         inkscape:connector-curvature="0"
         id="path3724"
         d="m 102,866.86217 5,0 0,0 0,0"
         style="fill:none;stroke:#000000;stroke-width:1px;stroke-linecap:butt;stroke-linejoin:miter;stroke-opacity:1" />
      <path
         style="fill:none;stroke:#000000;stroke-width:1px;stroke-linecap:butt;stroke-linejoin:miter;stroke-opacity:1"
         d="m 62.458101,27.164445 -27.544523,0 0,0"
         id="path4884"
         inkscape:connector-curvature="0"
         transform="translate(-24.73484,820.23617)" />
      <path
         sodipodi:type="arc"
         id="path4886"
         style="fill:#000000;stroke:none"
         sodipodi:cx="37.723263"
         sodipodi:cy="847.32904"
         sodipodi:rx="1.5"
         sodipodi:ry="1.5"
         d="m 39.223263,847.32904 c 0,0.82843 -0.671573,1.5 -1.5,1.5 -0.828427,0 -1.5,-0.67157 -1.5,-1.5 0,-0.82843 0.671573,-1.5 1.5,-1.5 0.828427,0 1.5,0.67157 1.5,1.5 z" />
      <g
         transform="translate(-78.199261,0.05185465)"
         id="layer1-5"
         inkscape:label="Layer 1">
        <path
           inkscape:connector-curvature="0"
           id="path2989"
           d="m 100.12232,847.36217 -14.939988,0"
           style="fill:none;stroke:#000000;stroke-width:0.86429107px;stroke-linecap:butt;stroke-linejoin:miter;stroke-opacity:1" />
        <path
           transform="translate(-40.5,772.86217)"
           d="m 126,74.5 c 0,0.828427 -0.67157,1.5 -1.5,1.5 -0.82843,0 -1.5,-0.671573 -1.5,-1.5 0,-0.828427 0.67157,-1.5 1.5,-1.5 0.82843,0 1.5,0.671573 1.5,1.5 z"
           sodipodi:ry="1.5"
           sodipodi:rx="1.5"
           sodipodi:cy="74.5"
           sodipodi:cx="124.5"
           id="path3854"
           style="fill:none;stroke:#000000;stroke-width:0.5;stroke-linejoin:miter;stroke-miterlimit:4;stroke-opacity:1;stroke-dasharray:none"
           sodipodi:type="arc" />
      </g>
      <path
         style="fill:none;stroke:#000000;stroke-width:1.07690668px;stroke-linecap:butt;stroke-linejoin:miter;stroke-opacity:1"
         d="m -2.2651769,863.68699 -3.6458429,-2.86286"
         id="path4944"
         inkscape:connector-curvature="0" />
      <path
         style="fill:none;stroke:#000000;stroke-width:1px;stroke-linecap:butt;stroke-linejoin:miter;stroke-opacity:1"
         d="m -5.6119942,866.66521 2.662521,-2.87954 -9.9999998,0 0,15"
         id="path4948"
         inkscape:connector-curvature="0"
         sodipodi:nodetypes="cccc" />
      <text
         xml:space="preserve"
         style="font-size:12px;font-style:normal;font-variant:normal;font-weight:normal;font-stretch:normal;line-height:125%;letter-spacing:0px;word-spacing:0px;fill:#000000;fill-opacity:1;stroke:none;font-family:Serif;-inkscape-font-specification:Serif"
         x="-0.29656577"
         y="867.4361"
         id="text4950"
         sodipodi:linespacing="125%"><tspan
           sodipodi:role="line"
           id="tspan4952"
           x="-0.29656577"
           y="867.4361">Zin</tspan></text>
    </g>
    <g
       style="fill:#000000;fill-opacity:0.00834333"
       inkscape:label="Layer 1"
       id="g3726"
       transform="translate(-18.740898,-40.296244)">
      <path
         style="fill:#000000;fill-opacity:0.00834333;stroke:#000000;stroke-width:1px;stroke-linecap:butt;stroke-linejoin:miter;stroke-opacity:1"
         d="m 147.51495,892.47717 20,0"
         id="path3728"
         inkscape:connector-curvature="0" />
      <path
         style="fill:#000000;fill-opacity:0.00834333;stroke:#000000;stroke-width:1px;stroke-linecap:butt;stroke-linejoin:miter;stroke-opacity:1"
         d="m 164.51495,895.22717 -14,0"
         id="path3730"
         inkscape:connector-curvature="0" />
      <path
         style="fill:#000000;fill-opacity:0.00834333;stroke:#000000;stroke-width:1px;stroke-linecap:butt;stroke-linejoin:miter;stroke-opacity:1"
         d="m 153.51495,897.97717 8,0"
         id="path3732"
         inkscape:connector-curvature="0" />
      <path
         style="fill:#000000;fill-opacity:0.00834333;stroke:#000000;stroke-width:1px;stroke-linecap:butt;stroke-linejoin:miter;stroke-opacity:1"
         d="m 157.51495,892.36221 0,-6 0,0 0,0"
         id="path3734"
         inkscape:connector-curvature="0" />
    </g>
    <path
       inkscape:connector-curvature="0"
       id="path3742"
       d="m 155.01573,828.80588 -16.26166,0 0,17.48686"
       style="fill:none;stroke:#000000;stroke-width:1px;stroke-linecap:butt;stroke-linejoin:miter;stroke-opacity:1" />
    <path
       style="fill:none;stroke:#000000;stroke-width:0.86429107px;stroke-linecap:butt;stroke-linejoin:miter;stroke-opacity:1"
       d="m 164.09407,884.1941 14.94,0"
       id="path3750"
       inkscape:connector-curvature="0" />
    <path
       style="fill:none;stroke:#000000;stroke-width:0.85814625px;stroke-linecap:butt;stroke-linejoin:miter;stroke-opacity:1"
       d="m 164.0846,904.1941 c 14.72831,0 14.72831,0 14.72831,0"
       id="path3752"
       inkscape:connector-curvature="0" />
    <path
       style="fill:none;stroke:#000000;stroke-width:1px;stroke-linecap:butt;stroke-linejoin:miter;stroke-opacity:1"
       d="m 164.21639,874.1941 0,40 -25,-10 0,-20 z"
       id="path3754"
       inkscape:connector-curvature="0" />
    <path
       style="fill:none;stroke:#000000;stroke-width:1px;stroke-linecap:butt;stroke-linejoin:miter;stroke-opacity:1"
       d="m 149.44703,908.50219 0,15"
       id="path3758"
       inkscape:connector-curvature="0" />
    <text
       xml:space="preserve"
       style="font-size:40px;font-style:normal;font-weight:normal;line-height:125%;letter-spacing:0px;word-spacing:0px;fill:#000000;fill-opacity:1;stroke:none;font-family:Sans"
       x="141.4299"
       y="895.65875"
       id="text3760"
       sodipodi:linespacing="125%"><tspan
         sodipodi:role="line"
         id="tspan3762"
         x="141.4299"
         y="895.65875"
         style="font-size:14px;font-style:normal;font-variant:normal;font-weight:normal;font-stretch:normal;font-family:Serif;-inkscape-font-specification:Serif">g<tspan
   style="font-size:8px"
   id="tspan3764">m</tspan><tspan
   id="tspan4810"
   style="font-size:65.00091553%;baseline-shift:sub">2</tspan></tspan></text>
    <path
       style="fill:none;stroke:#000000;stroke-width:1px;stroke-linecap:butt;stroke-linejoin:miter;stroke-opacity:1"
       d="m 162.21639,884.1941 -5,0 0,0 0,0"
       id="path3766"
       inkscape:connector-curvature="0" />
    <path
       inkscape:connector-curvature="0"
       id="path3768"
       d="m 162.21639,884.1941 -5,0 0,0 0,0"
       style="fill:none;stroke:#000000;stroke-width:1px;stroke-linecap:butt;stroke-linejoin:miter;stroke-opacity:1" />
    <path
       style="fill:none;stroke:#000000;stroke-width:1px;stroke-linecap:butt;stroke-linejoin:miter;stroke-opacity:1"
       d="m 159.71639,906.38737 0,-5 0,0 0,0"
       id="path3770"
       inkscape:connector-curvature="0" />
    <path
       inkscape:connector-curvature="0"
       id="path3772"
       d="m 162.21639,903.88737 -5,0 0,0 0,0"
       style="fill:none;stroke:#000000;stroke-width:1px;stroke-linecap:butt;stroke-linejoin:miter;stroke-opacity:1" />
    <g
       transform="matrix(-1,0,0,1,352.25636,35.101155)"
       id="g3774"
       inkscape:label="Layer 1"
       style="fill:#000000;fill-opacity:0.00834333">
      <path
         inkscape:connector-curvature="0"
         id="path3776"
         d="m 147.51495,892.47717 20,0"
         style="fill:#000000;fill-opacity:0.00834333;stroke:#000000;stroke-width:1px;stroke-linecap:butt;stroke-linejoin:miter;stroke-opacity:1" />
      <path
         inkscape:connector-curvature="0"
         id="path3778"
         d="m 164.51495,895.22717 -14,0"
         style="fill:#000000;fill-opacity:0.00834333;stroke:#000000;stroke-width:1px;stroke-linecap:butt;stroke-linejoin:miter;stroke-opacity:1" />
      <path
         inkscape:connector-curvature="0"
         id="path3780"
         d="m 153.51495,897.97717 8,0"
         style="fill:#000000;fill-opacity:0.00834333;stroke:#000000;stroke-width:1px;stroke-linecap:butt;stroke-linejoin:miter;stroke-opacity:1" />
      <path
         inkscape:connector-curvature="0"
         id="path3782"
         d="m 157.51495,892.36221 0,-6 0,0 0,0"
         style="fill:#000000;fill-opacity:0.00834333;stroke:#000000;stroke-width:1px;stroke-linecap:butt;stroke-linejoin:miter;stroke-opacity:1" />
    </g>
    <path
       style="fill:none;stroke:#000000;stroke-width:1px;stroke-linecap:butt;stroke-linejoin:miter;stroke-opacity:1"
       d="m 178.49973,904.20329 16.26165,0 0,17.48686"
       id="path3790"
       inkscape:connector-curvature="0" />
    <path
       inkscape:connector-curvature="0"
       id="path4606"
       d="m 208.4245,815.33033 0,7.20867 5.32656,-3.62672 z"
       style="fill:#000000;fill-opacity:1;stroke:#000000;stroke-width:1.18204737px;stroke-linecap:butt;stroke-linejoin:miter;stroke-opacity:1" />
    <text
       xml:space="preserve"
       style="font-size:12px;font-style:normal;font-variant:normal;font-weight:normal;font-stretch:normal;line-height:125%;letter-spacing:0px;word-spacing:0px;fill:#000000;fill-opacity:1;stroke:none;font-family:Serif;-inkscape-font-specification:Serif"
       x="203.51366"
       y="810.78937"
       id="text4753"
       sodipodi:linespacing="125%"><tspan
         sodipodi:role="line"
         id="tspan4755"
         x="203.51366"
         y="810.78937">Io<tspan
   style="font-size:65.00091553%;baseline-shift:sub"
   id="tspan4868">1</tspan></tspan></text>
    <g
       transform="translate(106.86272,35.036055)"
       id="g4709"
       inkscape:label="Layer 1"
       style="fill:#000000;fill-opacity:0.00834333">
      <path
         inkscape:connector-curvature="0"
         id="path4711"
         d="m 147.51495,892.47717 20,0"
         style="fill:#000000;fill-opacity:0.00834333;stroke:#000000;stroke-width:1px;stroke-linecap:butt;stroke-linejoin:miter;stroke-opacity:1" />
      <path
         inkscape:connector-curvature="0"
         id="path4713"
         d="m 164.51495,895.22717 -14,0"
         style="fill:#000000;fill-opacity:0.00834333;stroke:#000000;stroke-width:1px;stroke-linecap:butt;stroke-linejoin:miter;stroke-opacity:1" />
      <path
         inkscape:connector-curvature="0"
         id="path4715"
         d="m 153.51495,897.97717 8,0"
         style="fill:#000000;fill-opacity:0.00834333;stroke:#000000;stroke-width:1px;stroke-linecap:butt;stroke-linejoin:miter;stroke-opacity:1" />
      <path
         inkscape:connector-curvature="0"
         id="path4717"
         d="m 157.51495,892.36221 0,-6 0,0 0,0"
         style="fill:#000000;fill-opacity:0.00834333;stroke:#000000;stroke-width:1px;stroke-linecap:butt;stroke-linejoin:miter;stroke-opacity:1" />
    </g>
    <path
       style="fill:none;stroke:#000000;stroke-width:1px;stroke-linecap:butt;stroke-linejoin:miter;stroke-opacity:1"
       d="m 164.40908,37.146098 25.59738,0 0,65.203292 -55.65203,0.2547"
       id="path4812"
       inkscape:connector-curvature="0"
       transform="translate(44.564226,781.6707)" />
    <path
       style="fill:none;stroke:#000000;stroke-width:1px;stroke-linecap:butt;stroke-linejoin:miter;stroke-opacity:1"
       d="m 187.33211,37.018748 32.98369,0"
       id="path4814"
       inkscape:connector-curvature="0"
       transform="translate(44.564226,781.6707)" />
    <path
       sodipodi:type="arc"
       id="path4816"
       style="fill:#000000;stroke:none"
       sodipodi:cx="234.57069"
       sodipodi:cy="818.68945"
       sodipodi:rx="1.5"
       sodipodi:ry="1.5"
       d="m 236.07069,818.68945 c 0,0.82843 -0.67157,1.5 -1.5,1.5 -0.82842,0 -1.5,-0.67157 -1.5,-1.5 0,-0.82842 0.67158,-1.5 1.5,-1.5 0.82843,0 1.5,0.67158 1.5,1.5 z" />
    <g
       transform="matrix(0,-1,1,0,-632.99129,1071.6908)"
       id="layer1-6"
       inkscape:label="Layer 1">
      <g
         id="g2992">
        <path
           style="fill:none;stroke:#000000;stroke-width:1px;stroke-linecap:butt;stroke-linejoin:miter;stroke-opacity:1"
           d="m 22.5,15.5 0,-6 31,0 0,12 -31,0 z"
           id="path2984"
           inkscape:connector-curvature="0"
           transform="translate(164.5,881.86221)" />
      </g>
      <path
         inkscape:connector-curvature="0"
         id="path2986"
         d="m 218,897.36221 12,0"
         style="fill:none;stroke:#000000;stroke-width:1px;stroke-linecap:butt;stroke-linejoin:miter;stroke-opacity:1" />
      <path
         style="fill:none;stroke:#000000;stroke-width:1px;stroke-linecap:butt;stroke-linejoin:miter;stroke-opacity:1"
         d="m 175,897.36221 12,0"
         id="path2990"
         inkscape:connector-curvature="0" />
    </g>
    <text
       xml:space="preserve"
       style="font-size:12px;font-style:normal;font-variant:normal;font-weight:normal;font-stretch:normal;line-height:125%;letter-spacing:0px;word-spacing:0px;fill:#000000;fill-opacity:1;stroke:none;font-family:Serif;-inkscape-font-specification:Serif"
       x="275.46027"
       y="872.19421"
       id="text4854"
       sodipodi:linespacing="125%"><tspan
         sodipodi:role="line"
         id="tspan4856"
         x="275.46027"
         y="872.19421">Z<tspan
   style="font-size:65.00091553%;baseline-shift:sub"
   id="tspan4858">L</tspan></tspan></text>
    <path
       style="fill:none;stroke:#000000;stroke-width:1px;stroke-linecap:butt;stroke-linejoin:miter;stroke-opacity:1"
       d="m 264.37962,896.45336 0,25.02057"
       id="path4860"
       inkscape:connector-curvature="0" />
    <path
       style="fill:none;stroke:#000000;stroke-width:1px;stroke-linecap:butt;stroke-linejoin:miter;stroke-opacity:1"
       d="m 264.38262,818.42875 0,23.28561"
       id="path4862"
       inkscape:connector-curvature="0" />
    <path
       style="fill:none;stroke:#000000;stroke-width:0.99900615px;stroke-linecap:butt;stroke-linejoin:miter;stroke-opacity:1"
       d="m 139.191,893.959 -32.1542,0 0,-85.62837"
       id="path4864"
       inkscape:connector-curvature="0" />
    <path
       style="fill:none;stroke:#000000;stroke-width:1px;stroke-linecap:butt;stroke-linejoin:miter;stroke-opacity:1"
       d="m 110.05513,27.167128 -47.543818,0"
       id="path4866"
       inkscape:connector-curvature="0"
       transform="translate(44.564226,781.6707)" />
    <path
       style="fill:#000000;fill-opacity:1;stroke:#000000;stroke-width:1.18204737px;stroke-linecap:butt;stroke-linejoin:miter;stroke-opacity:1"
       d="m 126.60794,890.18347 0,7.20867 -5.32656,-3.62672 z"
       id="path4870"
       inkscape:connector-curvature="0" />
    <text
       sodipodi:linespacing="125%"
       id="text4872"
       y="885.64252"
       x="118.26425"
       style="font-size:12px;font-style:normal;font-variant:normal;font-weight:normal;font-stretch:normal;line-height:125%;letter-spacing:0px;word-spacing:0px;fill:#000000;fill-opacity:1;stroke:none;font-family:Serif;-inkscape-font-specification:Serif"
       xml:space="preserve"><tspan
         y="885.64252"
         x="118.26425"
         id="tspan4874"
         sodipodi:role="line">Io<tspan
   style="font-size:65.00091553%;baseline-shift:sub"
   id="tspan4878">2</tspan></tspan></text>
    <g
       style="fill:#000000;fill-opacity:0.00834333"
       inkscape:label="Layer 1"
       id="g4888"
       transform="matrix(-1,0,0,1,232.1217,-44.603573)">
      <path
         style="fill:#000000;fill-opacity:0.00834333;stroke:#000000;stroke-width:1px;stroke-linecap:butt;stroke-linejoin:miter;stroke-opacity:1"
         d="m 147.51495,892.47717 20,0"
         id="path4890"
         inkscape:connector-curvature="0" />
      <path
         style="fill:#000000;fill-opacity:0.00834333;stroke:#000000;stroke-width:1px;stroke-linecap:butt;stroke-linejoin:miter;stroke-opacity:1"
         d="m 164.51495,895.22717 -14,0"
         id="path4892"
         inkscape:connector-curvature="0" />
      <path
         style="fill:#000000;fill-opacity:0.00834333;stroke:#000000;stroke-width:1px;stroke-linecap:butt;stroke-linejoin:miter;stroke-opacity:1"
         d="m 153.51495,897.97717 8,0"
         id="path4894"
         inkscape:connector-curvature="0" />
      <path
         style="fill:#000000;fill-opacity:0.00834333;stroke:#000000;stroke-width:1px;stroke-linecap:butt;stroke-linejoin:miter;stroke-opacity:1"
         d="m 157.51495,892.36221 0,-6 0,0 0,0"
         id="path4896"
         inkscape:connector-curvature="0" />
    </g>
    <path
       style="fill:#000000;fill-opacity:1;stroke:#000000;stroke-width:1.18204737px;stroke-linecap:butt;stroke-linejoin:miter;stroke-opacity:1"
       d="m 89.213949,805.16509 0,7.20867 5.32656,-3.62672 z"
       id="path4958"
       inkscape:connector-curvature="0" />
    <text
       sodipodi:linespacing="125%"
       id="text4960"
       y="800.39313"
       x="85.920303"
       style="font-size:12px;font-style:normal;font-variant:normal;font-weight:normal;font-stretch:normal;line-height:125%;letter-spacing:0px;word-spacing:0px;fill:#000000;fill-opacity:1;stroke:none;font-family:Serif;-inkscape-font-specification:Serif"
       xml:space="preserve"><tspan
         y="800.39313"
         x="85.920303"
         id="tspan4962"
         sodipodi:role="line">I<tspan
   style="font-size:65.00091553%;baseline-shift:sub"
   id="tspan4966">in</tspan></tspan></text>
    <text
       xml:space="preserve"
       style="font-size:12px;font-style:normal;font-variant:normal;font-weight:normal;font-stretch:normal;line-height:125%;letter-spacing:0px;word-spacing:0px;fill:#000000;fill-opacity:1;stroke:none;font-family:Serif;-inkscape-font-specification:Serif"
       x="54.878868"
       y="810.27142"
       id="text4968"
       sodipodi:linespacing="125%"><tspan
         sodipodi:role="line"
         id="tspan4970"
         x="54.878868"
         y="810.27142">V<tspan
   style="font-size:65.00091553%;baseline-shift:sub"
   id="tspan4972">in</tspan></tspan></text>
  </g>
</svg>
